[
{"type":"Feature","properties":{"name":"Детский сад №240","description":""},"geometry":{"type":"Point","coordinates":[53.245958, 56.853501]},"options":{"preset":"cnst#pin_childs"}},
{"type":"Feature","properties":{"name":"Детский сад №228","description":""},"geometry":{"type":"Point","coordinates":[53.247476, 56.853419]},"options":{"preset":"cnst#pin_childs"}},
{"type":"Feature","properties":{"name":"Детский сад №265","description":""},"geometry":{"type":"Point","coordinates":[53.248892, 56.852656]},"options":{"preset":"cnst#pin_childs"}},
{"type":"Feature","properties":{"name":"Детский сад №191","description":""},"geometry":{"type":"Point","coordinates":[53.245670, 56.851705]},"options":{"preset":"cnst#pin_childs"}},
{"type":"Feature","properties":{"name":"Детский сад №186","description":""},"geometry":{"type":"Point","coordinates":[53.247200, 56.851659]},"options":{"preset":"cnst#pin_childs"}},
{"type":"Feature","properties":{"name":"Супермаркет «Ижтрейдинг»","description":""},"geometry":{"type":"Point","coordinates":[53.251686, 56.851221]},"options":{"preset":"cnst#pin_shop"}},
{"type":"Feature","properties":{"name":"Супермаркет «Магнит»","description":""},"geometry":{"type":"Point","coordinates":[53.250962, 56.851312]},"options":{"preset":"cnst#pin_shop"}},
{"type":"Feature","properties":{"name":"Супермаркет «Ижтрейдинг»","description":""},"geometry":{"type":"Point","coordinates":[53.259373, 56.848072]},"options":{"preset":"cnst#pin_shop"}},
{"type":"Feature","properties":{"name":"Гипермаркет «Ашан»","description":""},"geometry":{"type":"Point","coordinates":[53.276995, 56.847417]},"options":{"preset":"cnst#pin_shop"}},
{"type":"Feature","properties":{"name":"Экономико-технологический колледж","description":""},"geometry":{"type":"Point","coordinates":[53.257561, 56.851890]},"options":{"preset":"cnst#pin_educate"}},
{"type":"Feature","properties":{"name":"Школа №39","description":""},"geometry":{"type":"Point","coordinates":[53.249695, 56.851423]},"options":{"preset":"cnst#pin_educate"}},
{"type":"Feature","properties":{"name":"Ипподром","description":""},"geometry":{"type":"Point","coordinates":[53.251661, 56.845638]},"options":{"preset":"cnst#pin_sport"}},
{"type":"Feature","properties":{"name":"Фитнес-центр «Спортивный Квартал»","description":""},"geometry":{"type":"Point","coordinates":[53.258877, 56.847930]},"options":{"preset":"cnst#pin_sport"}},
{"type":"Feature","properties":{"name":"Стоматология «Евромед»","description":""},"geometry":{"type":"Point","coordinates":[53.251544, 56.850582]},"options":{"preset":"cnst#pin_medicine"}},
{"type":"Feature","properties":{"name":"Аптека «Аспэк Парма Медикал»","description":""},"geometry":{"type":"Point","coordinates":[53.252510, 56.850547]},"options":{"preset":"cnst#pin_medicine"}},
{"type":"Feature","properties":{"name":"Роддом №6","description":""},"geometry":{"type":"Point","coordinates":[53.249549, 56.849965]},"options":{"preset":"cnst#pin_medicine"}},
{"type":"Feature","properties":{"name":"Городская клиническая больница №6","description":""},"geometry":{"type":"Point","coordinates":[53.249098, 56.847962]},"options":{"preset":"cnst#pin_medicine"}},
{"type":"Feature","properties":{"name":"Городская клиническая больница №1","description":""},"geometry":{"type":"Point","coordinates":[53.249751, 56.856967]},"options":{"preset":"cnst#pin_medicine"}},
{"type":"Feature","properties":{"name":"Республиканский клинико-диагностический центр","description":""},"geometry":{"type":"Point","coordinates":[53.252393, 56.849382]},"options":{"preset":"cnst#pin_medicine"}},
{"type":"Feature","properties":{"name":"Республиканская детская клиническая больница","description":""},"geometry":{"type":"Point","coordinates":[53.245004, 56.847664]},"options":{"preset":"cnst#pin_medicine"}},
{"type":"Feature","properties":{"name":"Автобусная остановка","description":""},"geometry":{"type":"Point","coordinates":[53.248718, 56.847482]},"options":{"preset":"cnst#pin_transport"}},
{"type":"Feature","properties":{"name":"Трамвайная остановка","description":""},"geometry":{"type":"Point","coordinates":[53.249458, 56.847400]},"options":{"preset":"cnst#pin_transport"}},
{"type":"Feature","properties":{"name":"Трамвайная остановка","description":""},"geometry":{"type":"Point","coordinates":[53.254750, 56.848309]},"options":{"preset":"cnst#pin_transport"}},
{"type":"Feature","properties":{"name":"Трамвайная остановка","description":""},"geometry":{"type":"Point","coordinates":[53.257250, 56.852510]},"options":{"preset":"cnst#pin_transport"}},
{"type":"Feature","properties":{"name":"Трамвайная остановка","description":""},"geometry":{"type":"Point","coordinates":[53.257638, 56.855738]},"options":{"preset":"cnst#pin_transport"}},
{"type":"Feature","properties":{"name":"Трамвайная остановка","description":""},"geometry":{"type":"Point","coordinates":[53.242004, 56.846643]},"options":{"preset":"cnst#pin_transport"}}
]